…
df_sub <- df %>% select(country, year, men) %>% pivot_wider(id_cols = country, names_from = year, values_from = men)
country_vec <- df_sub$country
df_sub <- df_sub %>% select(-country) %>% mutate_at(vars(1:41), ~replace(., is.na(.), 0))

result <- specClust(df_sub, centers = 5)
df_sub$cluster <- result$cluster
df_sub$country <- country_vec
df_sub <- df_sub %>% pivot_longer(cols = c(-cluster, -country))

df_tab <- df_sub %>% select(cluster, country) 
df_tab %>% dplyr::distinct() %>% dplyr::filter(cluster == 4) %>%  print()

## # A tibble: 69 x 2
##    cluster country                                    
##      <int> <chr>                                      
##  1       4 Arab World                                 
##  2       4 World                                      
##  3       4 East Asia & Pacific (excluding high income)
##  4       4 South Asia                                 
##  5       4 Bangladesh                                 
##  6       4 Brazil                                     
##  7       4 Botswana                                   
##  8       4 China                                      
##  9       4 Cabo Verde                                 
## 10       4 Djibouti                                   
## # ... with 59 more rows
…
