…
Image by Alexas_Fotos from Pixabay

Life Expectancy in different countries

In this article, we want to take a look at time-series clustering. Great time-series data can be acquired with the WorldBank-API. For starters, we will query the life-expectancy for men and women from all available countries.

In a next step, we calculate the average life-expectancy as: \[LE_{avg} = \frac{LE_{men} + LE_{women}}{2} \]. Note that this does not take different populations of men and women into account, they are weighted equally.

A tibble: 28 x 2

cluster country

1 4 Andorra

2 4 American Samoa

3 4 Bermuda

4 4 Curacao

5 4 Dominica

6 4 Faroe Islands

7 4 Gibraltar

8 4 Greenland

9 4 Isle of Man

10 4 St. Kitts and Nevis
# … with 18 more rows
…
