Life Expectancy - Time Series Clustering - Share and connect.
…
set.seed(42)

n_clust = 4
result <- specClust(df_sub, centers = n_clust)

df_sub$cluster <- result$cluster
df_sub$country <- country_vec
df_sub <- df_sub %>% pivot_longer(cols = c(-cluster, -country))

df_tab <- df_sub %>% select(cluster, country) 
df_tab %>% dplyr::distinct() %>% dplyr::filter(cluster == 4) %>%  print()

## # A tibble: 28 x 2
##    cluster country            
##      <int> <chr>              
##  1       4 Andorra            
##  2       4 American Samoa     
##  3       4 Bermuda            
##  4       4 Curacao            
##  5       4 Dominica           
##  6       4 Faroe Islands      
##  7       4 Gibraltar          
##  8       4 Greenland          
##  9       4 Isle of Man        
## 10       4 St. Kitts and Nevis
## # ... with 18 more rows
…
